component	engine	booster	weapon_0	weapon_1
s	s	s	s	s
collection_reward_booster_01_mk1		ywing_booster_s02:booster1		
collection_reward_booster_01_mk2		ywing_booster_s02:booster1		
collection_reward_booster_01_mk3		ywing_booster_s02:booster1		
collection_reward_booster_01_mk4		ywing_booster_s02:booster1		
collection_reward_booster_01_mk5		ywing_booster_s02:booster1		
bst_corellian_advanced_thrust_enhancer		ywing_booster_s01:booster1		
bst_corellian_elite_thrust_enhancer		ywing_booster_s01:booster1		
bst_corellian_experimental_tjh3		ywing_booster_s01:booster1		
bst_corellian_heavy_thrust_enhancer		ywing_booster_s02:booster1		
bst_corellian_highly_modified_elite_thrust_enhancer		ywing_booster_s01:booster1		
bst_corellian_performance_advanced_thrust_enhancer		ywing_booster_s01:booster1		
bst_corellian_promotional_standard_thrust_enhancer		ywing_booster_s01:booster1		
bst_corellian_standard_thrust_enhancer		ywing_booster_s01:booster1		
bst_corellian_tjh3		ywing_booster_s01:booster1		
bst_corellian_tuned_heavy_thrust_enhancer		ywing_booster_s02:booster1
bst_cygnus_flashboost3		ywing_booster_s01:booster1
bst_cygnus_flashboost4		ywing_booster_s01:booster1
bst_elite_booster		ywing_booster_s01:booster1
bst_freitek_outrunner_x1		ywing_booster_s01:booster1
bst_gallofree_light		ywing_booster_s01:booster1
bst_generic		ywing_booster_s01:booster1
bst_incom_deluxe_fynock		ywing_booster_s01:booster1
bst_incom_elite_sls_1		ywing_booster_s01:booster1
bst_incom_enhanced_mynock		ywing_booster_s01:booster1
bst_incom_fynock		ywing_booster_s01:booster1
bst_incom_intimidator_mk1		ywing_booster_s01:booster1
bst_incom_intimidator_mk2		ywing_booster_s01:booster1
bst_incom_intimidator_mk3		ywing_booster_s01:booster1
bst_incom_intimidator_mk4		ywing_booster_s01:booster1
bst_incom_mynock		ywing_booster_s01:booster1
bst_incom_nkj31		ywing_booster_s01:booster1
bst_incom_performance_nkj31		ywing_booster_s01:booster1
bst_incom_sls_1		ywing_booster_s01:booster1
bst_incom_supercharged_vynock		ywing_booster_s02:booster1
bst_incom_vynock		ywing_booster_s01:booster1
bst_kde_br12		ywing_booster_s01:booster1
bst_kessel_imperial_cygnus_hyperthrust		ywing_booster_s01:booster1
bst_kessel_imperial_sds_experimental_b7		ywing_booster_s01:booster1
bst_kessel_imperial_sfs_ultra_thrust		ywing_booster_s01:booster1
bst_kessel_rebel_incom_quicksilver		ywing_booster_s01:booster1
bst_kessel_rebel_incom_windrunner		ywing_booster_s01:booster1
bst_kessel_rebel_mandal_lightning_m1		ywing_booster_s01:booster1
bst_koensayr_advanced		ywing_booster_s01:booster1
bst_koensayr_charged_advanced		ywing_booster_s01:booster1
bst_koensayr_deluxe_elite		ywing_booster_s01:booster1
bst_koensayr_elite		ywing_booster_s01:booster1
bst_koensayr_evh12		ywing_booster_s01:booster1
bst_koensayr_heavy		ywing_booster_s02:booster1
bst_koensayr_modified_heavy		ywing_booster_s02:booster1
bst_koensayr_racer_mk1		ywing_booster_s02:booster1
bst_koensayr_racer_mk2		ywing_booster_s02:booster1
bst_koensayr_racer_mk3		ywing_booster_s02:booster1
bst_koensayr_racer_mk4		ywing_booster_s02:booster1
bst_koensayr_special_evh12		ywing_booster_s01:booster1
bst_koensayr_improved_standard		ywing_booster_s01:booster1
bst_koensayr_standard		ywing_booster_s01:booster1
bst_kse_als_1		ywing_booster_s01:booster1
bst_kse_bti1		ywing_booster_s01:booster1
bst_kse_bti2		ywing_booster_s01:booster1
bst_kse_bti3		ywing_booster_s01:booster1
bst_kse_cb6		ywing_booster_s01:booster1
bst_kse_deluxe_bti3		ywing_booster_s01:booster1
bst_kse_elite_als_1		ywing_booster_s01:booster1
bst_kse_enhanced_bti2		ywing_booster_s01:booster1
bst_kse_performance_bti1		ywing_booster_s01:booster1
bst_kse_performance_cb6		ywing_booster_s01:booster1
bst_kuat_military_mk1		ywing_booster_s02:booster1
bst_kuat_military_mk2		ywing_booster_s02:booster1
bst_kuat_military_mk3		ywing_booster_s01:booster1
bst_kuat_military_mk4		ywing_booster_s02:booster1
bst_mandal_deluxe_jbj_mk4		ywing_booster_s01:booster1
bst_mandal_enhanced_jbj_mk1		ywing_booster_s01:booster1
bst_mandal_improved_jbj_mk3		ywing_booster_s01:booster1
bst_mandal_jbj_mk1		ywing_booster_s01:booster1
bst_mandal_jbj_mk2		ywing_booster_s01:booster1
bst_mandal_jbj_mk3		ywing_booster_s01:booster1
bst_mandal_jbj_mk4		ywing_booster_s01:booster1
bst_mandal_jbj_mk5		ywing_booster_s01:booster1
bst_mandal_limited_jbj_mk5		ywing_booster_s01:booster1
bst_mandal_modified_jbj_mk2		ywing_booster_s01:booster1
bst_mission_reward_imperial_rss_ion_booster		ywing_booster_s02:booster1
bst_mission_reward_neutral_mandal_m_series		ywing_booster_s02:booster1
bst_mission_reward_neutral_mandal_q_series		ywing_booster_s02:booster1
bst_mission_reward_rebel_novaldex_hypernova		ywing_booster_s02:booster1
bst_mission_reward_rebel_qualdex_halcyon		ywing_booster_s02:booster1
bst_mk1		ywing_booster_s01:booster1
bst_mk2		ywing_booster_s01:booster1
bst_mk3		ywing_booster_s02:booster1
bst_mk4		ywing_booster_s02:booster1
bst_mk5		ywing_booster_s02:booster1
bst_moncal_advanced		ywing_booster_s01:booster1
bst_moncal_charged_heavy		ywing_booster_s01:booster1
bst_moncal_deluxe_standard		ywing_booster_s01:booster1
bst_moncal_elite		ywing_booster_s01:booster1
bst_moncal_enhanced_elite		ywing_booster_s01:booster1
bst_moncal_heavy		ywing_booster_s01:booster1
bst_moncal_jlc37		ywing_booster_s01:booster1
bst_moncal_limited_jlc37		ywing_booster_s01:booster1
bst_moncal_rare_advanced		ywing_booster_s01:booster1
bst_moncal_standard		ywing_booster_s01:booster1
bst_nova_breaker		ywing_booster_s01:booster1
bst_novaldex_pulsar		ywing_booster_s01:booster1
bst_novaldex_pulsar_advanced		ywing_booster_s01:booster1
bst_novaldex_quasar		ywing_booster_s01:booster1
bst_novaldex_quasar_advanced		ywing_booster_s01:booster1
bst_qualdex_xboost_mk1		ywing_booster_s01:booster1
bst_qualdex_xboost_mk2		ywing_booster_s01:booster1
bst_qualdex_xboost_mk3		ywing_booster_s01:booster1
bst_qualdex_xboost_mk4		ywing_booster_s01:booster1
bst_reward_incom_elite		ywing_booster_s01:booster1
bst_reward_koensayr_elite		ywing_booster_s01:booster1
bst_reward_kuat_elite		ywing_booster_s01:booster1
bst_reward_novaldex_elite		ywing_booster_s01:booster1
bst_reward_qualdex_elite		ywing_booster_s01:booster1
bst_rss_special		ywing_booster_s01:booster1
bst_sap_imperial_1		ywing_booster_s01:booster1
bst_sap_imperial_2		ywing_booster_s01:booster1
bst_sds_enhanced_imperial_2		ywing_booster_s01:booster1
bst_sfs_imperial_1		ywing_booster_s01:booster1
bst_sfs_imperial_2		ywing_booster_s01:booster1
bst_slayn_ion_booster_mk1		ywing_booster_s01:booster1
bst_sorosuub_enhanced_liberator_mk4		ywing_booster_s01:booster1
bst_sorosuub_improved_liberator_mk2		ywing_booster_s01:booster1
bst_sorosuub_liberator_mk1		ywing_booster_s01:booster1
bst_sorosuub_liberator_mk2		ywing_booster_s01:booster1
bst_sorosuub_liberator_mk3		ywing_booster_s01:booster1
bst_sorosuub_liberator_mk4		ywing_booster_s01:booster1
bst_sorosuub_liberator_mk5		ywing_booster_s01:booster1
bst_sorosuub_prized_liberator_mk1		ywing_booster_s01:booster1
bst_sorosuub_supercharged_liberator_mk3		ywing_booster_s01:booster1
bst_sorosuub_well_tuned_liberator_mk5		ywing_booster_s01:booster1
bst_subpro_accelatron_mk1		ywing_booster_s01:booster1
bst_subpro_accelatron_mk2		ywing_booster_s01:booster1
bst_subpro_accelatron_mk3		ywing_booster_s01:booster1
bst_subpro_accelatron_mk4		ywing_booster_s01:booster1
bst_subpro_accelatron_mk5		ywing_booster_s01:booster1
bst_subpro_deluxe_accelatron_mk3		ywing_booster_s01:booster1
bst_subpro_elite_accelatron_mk5		ywing_booster_s01:booster1
bst_subpro_enhanced_accelatron_mk2		ywing_booster_s01:booster1
bst_subpro_modified_accelatron_mk4		ywing_booster_s01:booster1
bst_subpro_tuned_accelatron_mk1		ywing_booster_s01:booster1
bst_surronian_accelerator_mk1		ywing_booster_s01:booster1
bst_surronian_accelerator_mk2		ywing_booster_s01:booster1
bst_surronian_nomad_x4		ywing_booster_s01:booster1
bst_surronian_nomad_x8		ywing_booster_s01:booster1
bst_tiefighter_basic		ywing_booster_s02:booster1
bst_xwing_booster_s01		ywing_booster_s01:booster1
bst_z95_basic		ywing_booster_s01:booster1
eng_t86_shooting_star	ywing_engine_s01:engine1	
eng_kuat_m24	ywing_engine_s01:engine1	
eng_bezelbok_kessel_runner	ywing_engine_s02:engine1	
eng_corellian_cruiser_grade_mk1	ywing_engine_s01:engine1	
eng_corellian_cruiser_grade_mk2	ywing_engine_s01:engine1	
eng_corellian_deluxe_cruiser_grade_mk1	ywing_engine_s01:engine1	
eng_crafted_incom_fusialthrust	ywing_engine_s01:engine1	
eng_crafted_novaldex_eventhorizon	ywing_engine_s02:engine1	
eng_crafted_qualdex_kyromaster	ywing_engine_s02:engine1	
eng_cygnus_hd3	ywing_engine_s01:engine1	
eng_cygnus_hd7	ywing_engine_s01:engine1
eng_cygnus_hd8	ywing_engine_s01:engine1
eng_cygnus_hd_5	ywing_engine_s01:engine1
eng_cygnus_hdx	ywing_engine_s01:engine1
eng_damorian_rx7	ywing_engine_s01:engine1
eng_freitek_dual_jet	ywing_engine_s01:engine1
eng_gallofree_advanced	ywing_engine_s01:engine1
eng_gallofree_jx2	ywing_engine_s01:engine1
eng_gallofree_jx3	ywing_engine_s01:engine1
eng_generic	ywing_engine_s01:engine1
eng_h17_singularity	ywing_engine_s02:engine1
eng_haor_chall_old_engine	ywing_engine_s01:engine1
eng_incom_advanced	ywing_engine_s01:engine1
eng_incom_advanced_fusialthrust	ywing_engine_s01:engine1
eng_incom_e16	ywing_engine_s01:engine1
eng_incom_elite	ywing_engine_s01:engine1
eng_incom_fusialthrust	ywing_engine_s01:engine1
eng_incom_fusialthrust_2	ywing_engine_s01:engine1
eng_incom_heavy_fusialthrust	ywing_engine_s01:engine1
eng_incom_improved_fusialthrust_2	ywing_engine_s01:engine1
eng_incom_light_fusialthrust	ywing_engine_s01:engine1
eng_koensayr_advanced	ywing_engine_s01:engine1
eng_koensayr_dual_small_ionjet	ywing_engine_s01:engine1
eng_koensayr_elite	ywing_engine_s01:engine1
eng_koensayr_enhanced_dual_small_ionjet	ywing_engine_s01:engine1
eng_koensayr_heavy_ionjet	ywing_engine_s01:engine1
eng_koensayr_ionjet	ywing_engine_s01:engine1
eng_koensayr_small_ionjet	ywing_engine_s01:engine1
eng_koensayr_tuned_small_ionjet	ywing_engine_s01:engine1
eng_kongar_defender	ywing_engine_s01:engine1
eng_kse_a2x	ywing_engine_s01:engine1
eng_kse_a5x	ywing_engine_s01:engine1
eng_kse_a7x	ywing_engine_s01:engine1
eng_kse_a8x	ywing_engine_s01:engine1
eng_kse_advanced	ywing_engine_s01:engine1
eng_kse_elite	ywing_engine_s01:engine1
eng_kse_improved_a2x	ywing_engine_s01:engine1
eng_kuat_a9x	ywing_engine_s01:engine1
eng_kuat_f31	ywing_engine_s01:engine1
eng_kuat_tc40	ywing_engine_s01:engine1
eng_mandal_advanced	ywing_engine_s01:engine1
eng_mandal_elite	ywing_engine_s01:engine1
eng_mandal_enhanced_heavy	ywing_engine_s01:engine1
eng_mandal_firestorm	ywing_engine_s01:engine1
eng_mandal_firestorm_2	ywing_engine_s01:engine1
eng_mandal_heavy	ywing_engine_s01:engine1
eng_mandal_x37_vandal	ywing_engine_s01:engine1
eng_mandal_x57_vandal	ywing_engine_s01:engine1
eng_mission_reward_imperial_cygnus_megadrive	ywing_engine_s02:engine1
eng_mission_reward_neutral_haor_chall_military	ywing_engine_s02:engine1
eng_mission_reward_neutral_mandal_inferno	ywing_engine_s02:engine1
eng_mission_reward_rebel_incom_military	ywing_engine_s02:engine1
eng_mk1	ywing_engine_s01:engine1
eng_mk2	ywing_engine_s01:engine1
eng_mk3	ywing_engine_s02:engine1
eng_mk4	ywing_engine_s02:engine1
eng_mk5	ywing_engine_s02:engine1
eng_moncal_charged_standard	ywing_engine_s01:engine1
eng_moncal_enhanced_light	ywing_engine_s01:engine1
eng_moncal_heavy	ywing_engine_s01:engine1
eng_moncal_ifs32	ywing_engine_s01:engine1
eng_moncal_ifs64	ywing_engine_s01:engine1
eng_moncal_improved_heavy	ywing_engine_s01:engine1
eng_moncal_light	ywing_engine_s01:engine1
eng_moncal_standard	ywing_engine_s01:engine1
eng_novaldex_advanced	ywing_engine_s01:engine1
eng_novaldex_eventhorizon	ywing_engine_s02:engine1
eng_novaldex_light_eventhorizon	ywing_engine_s01:engine1
eng_novaldex_singularity	ywing_engine_s02:engine1
eng_novaldex_x12	ywing_engine_s02:engine1
eng_novaldex_x6	ywing_engine_s01:engine1
eng_novaldex_x7	ywing_engine_s01:engine1
eng_novaldex_x9	ywing_engine_s01:engine1
eng_nubian_221	ywing_engine_s01:engine1
eng_nubian_221_racing_mod	ywing_engine_s01:engine1
eng_prototype	ywing_engine_s02:engine1
eng_qualdex_a10	ywing_engine_s02:engine1
eng_qualdex_a13	ywing_engine_s01:engine1
eng_qualdex_advanced	ywing_engine_s01:engine1
eng_qualdex_b10	ywing_engine_s01:engine1
eng_qualdex_elite	ywing_engine_s01:engine1
eng_qualdex_igt	ywing_engine_s02:engine1
eng_qualdex_kyromaster	ywing_engine_s02:engine1
eng_qualdex_small_kyromaster	ywing_engine_s01:engine1
eng_quantum_ion_drive	ywing_engine_s02:engine1
eng_rendili_demon_mk1	ywing_engine_s01:engine1
eng_rendili_elite	ywing_engine_s01:engine1
eng_rss_advanced	ywing_engine_s01:engine1
eng_rss_elite	ywing_engine_s01:engine1
eng_rss_imperial_skyrunner	ywing_engine_s01:engine1
eng_rss_imperial_skyrunner_2	ywing_engine_s01:engine1
eng_rss_imperial_skyrunner_3	ywing_engine_s01:engine1
eng_rss_imperial_skyrunner_4	ywing_engine_s01:engine1
eng_sds_imperial_1	ywing_engine_s01:engine1
eng_sds_imperial_2	ywing_engine_s01:engine1
eng_sds_limited_imperial_1	ywing_engine_s01:engine1
eng_seinar_ps56	ywing_engine_s01:engine1
eng_sfs_advanced	ywing_engine_s01:engine1
eng_sfs_elite	ywing_engine_s01:engine1
eng_sfs_imperial_1	ywing_engine_s01:engine1
eng_sfs_imperial_2	ywing_engine_s01:engine1
eng_sfs_imperial_3	ywing_engine_s01:engine1
eng_sfs_imperial_4	ywing_engine_s01:engine1
eng_sfs_imperial_5	ywing_engine_s01:engine1
eng_sfs_modified_imperial_3	ywing_engine_s01:engine1
eng_sfs_performance_imperial_1	ywing_engine_s01:engine1
eng_sfs_tuned_imperial_2	ywing_engine_s01:engine1
eng_sorosuub_l_337_ion_engine	ywing_engine_s01:engine1
eng_sorosuub_tuned_l_337_ion_engine	ywing_engine_s01:engine1
eng_sorosuub_u83r_ion_drive	ywing_engine_s01:engine1
eng_subpro_light_engines	ywing_engine_s01:engine1
eng_surronian_a2	ywing_engine_s02:engine1
eng_surronian_a25	ywing_engine_s02:engine1
eng_ubrikkian_n2	ywing_engine_s01:engine1
eng_kessel_imperial_rendili_hyperion_drive	ywing_engine_s01:engine1
eng_kessel_imperial_sds_special_forces	ywing_engine_s01:engine1
eng_kessel_imperial_sfs_special_forces	ywing_engine_s01:engine1
eng_kessel_rebel_incom_t11_elite	ywing_engine_s01:engine1
eng_kessel_rebel_novaldex_blackhole_elite	ywing_engine_s01:engine1
eng_kessel_rebel_novaldex_grb1138	ywing_engine_s01:engine1
eng_reward_kuat_elite	ywing_engine_s01:engine1
eng_nova_01	ywing_engine_s01:engine1
eng_orion_01	ywing_engine_s01:engine1
collection_reward_engine_01_mk1	ywing_engine_s01:engine1
collection_reward_engine_01_mk2	ywing_engine_s01:engine1
collection_reward_engine_01_mk3	ywing_engine_s01:engine1
collection_reward_engine_01_mk4	ywing_engine_s01:engine1
collection_reward_engine_01_mk5	ywing_engine_s01:engine1
wpn_advanced_blaster			ywing_weapon1_s05:weapon1	ywing_weapon2_s05:turretyaw1
wpn_advanced_blaster_green			ywing_weapon1_s05:weapon1	ywing_weapon2_s05:turretyaw1
wpn_advanced_disruptor			ywing_weapon1_s01:weapon1	ywing_weapon2_s01:turretyaw1
wpn_advanced_ioncannon			ywing_weapon1_s06:weapon1	ywing_weapon2_s06:turretyaw1
wpn_armek_advanced			ywing_weapon1_s01:weapon1	ywing_weapon2_s01:turretyaw1
wpn_armek_elite			ywing_weapon1_s01:weapon1	ywing_weapon2_s01:turretyaw1
wpn_armek_sw4			ywing_weapon1_s06:weapon1	ywing_weapon2_s06:turretyaw1
wpn_armek_sw6			ywing_weapon1_s01:weapon1	ywing_weapon2_s01:turretyaw1
wpn_armek_sw7			ywing_weapon1_s06:weapon1	ywing_weapon2_s06:turretyaw1
wpn_armek_sw8			ywing_weapon1_s01:weapon1	ywing_weapon2_s01:turretyaw1
wpn_awing_blaster			ywing_weapon1_s01:weapon1	ywing_weapon2_s01:turretyaw1
wpn_borstel_rg9			ywing_weapon1_s06:weapon1	ywing_weapon2_s06:turretyaw1
wpn_bwing_blaster			ywing_weapon1_s01:weapon1	ywing_weapon2_s01:turretyaw1
wpn_corellian_1d			ywing_weapon1_s01:weapon1	ywing_weapon2_s01:turretyaw1
wpn_corellian_ag1g_laser			ywing_weapon1_s04:weapon1	ywing_weapon2_s04:turretyaw1
wpn_corellian_ag2g_quad_laser			ywing_weapon1_s04:weapon1	ywing_weapon2_s04:turretyaw1
wpn_corellian_cruiser_grade_blaster_mk1			ywing_weapon1_s01:weapon1	ywing_weapon2_s01:turretyaw1
wpn_corellian_heavy_gauss			ywing_weapon1_s06:weapon1	ywing_weapon2_s06:turretyaw1
wpn_crafted_incom_disruptor			ywing_weapon1_s01:weapon1	ywing_weapon2_s01:turretyaw1
wpn_crafted_slayn_ioncannon			ywing_weapon1_s01:weapon1	ywing_weapon2_s01:turretyaw1
wpn_crafted_subpro_tripleblaster			ywing_weapon1_s01:weapon1	ywing_weapon2_s01:turretyaw1
wpn_crafted_tractor_beam			ywing_weapon1_s01:weapon1	ywing_weapon2_s01:turretyaw1
wpn_cygnus_destroyer_mk1			ywing_weapon1_s01:weapon1	ywing_weapon2_s01:turretyaw1
wpn_cygnus_destroyer_mk2			ywing_weapon1_s01:weapon1	ywing_weapon2_s01:turretyaw1
wpn_cygnus_elite			ywing_weapon1_s01:weapon1	ywing_weapon2_s01:turretyaw1
wpn_cygnus_eradicator_1			ywing_weapon1_s01:weapon1	ywing_weapon2_s01:turretyaw1
wpn_experimental_blaster			ywing_weapon1_s05:weapon1	ywing_weapon2_s05:turretyaw1
wpn_experimental_blaster_green			ywing_weapon1_s05:weapon1	ywing_weapon2_s05:turretyaw1
wpn_experimental_disruptor			ywing_weapon1_s01:weapon1	ywing_weapon2_s01:turretyaw1
wpn_experimental_ioncannon			ywing_weapon1_s06:weapon1	ywing_weapon2_s06:turretyaw1
wpn_fastspray_2000_disruptor			ywing_weapon1_s06:weapon1	ywing_weapon2_s06:turretyaw1
wpn_freitek_cannoneer_mk1			ywing_weapon1_s01:weapon1	ywing_weapon2_s01:turretyaw1
wpn_gyrhil_auto_blaster			ywing_weapon1_s04:weapon1	ywing_weapon2_s04:turretyaw1
wpn_gyrhil_r9x			ywing_weapon1_s06:weapon1	ywing_weapon2_s06:turretyaw1
wpn_haor_chall_speedblaster			ywing_weapon1_s01:weapon1	ywing_weapon2_s01:turretyaw1
wpn_heavy_blaster			ywing_weapon1_s05:weapon1	ywing_weapon2_s05:turretyaw1
wpn_heavy_blaster_green			ywing_weapon1_s05:weapon1	ywing_weapon2_s05:turretyaw1
wpn_heavy_disruptor			ywing_weapon1_s01:weapon1	ywing_weapon2_s01:turretyaw1
wpn_heavy_ioncannon			ywing_weapon1_s06:weapon1	ywing_weapon2_s06:turretyaw1
wpn_hk_modified_scorcher_elite			ywing_weapon1_s01:weapon1	ywing_weapon2_s01:turretyaw1
wpn_hk_scorcher			ywing_weapon1_s01:weapon1	ywing_weapon2_s01:turretyaw1
wpn_hk_scorcher_2			ywing_weapon1_s01:weapon1	ywing_weapon2_s01:turretyaw1
wpn_hk_scorcher_3			ywing_weapon1_s01:weapon1	ywing_weapon2_s01:turretyaw1
wpn_hk_scorcher_advanced			ywing_weapon1_s01:weapon1	ywing_weapon2_s01:turretyaw1
wpn_hk_scorcher_elite			ywing_weapon1_s01:weapon1	ywing_weapon2_s01:turretyaw1
wpn_hk_scorcher_heavy			ywing_weapon1_s01:weapon1	ywing_weapon2_s01:turretyaw1
wpn_hoersch_railgun			ywing_weapon1_s06:weapon1	ywing_weapon2_s06:turretyaw1
wpn_incom_advanced_blaster			ywing_weapon1_s01:weapon1	ywing_weapon2_s01:turretyaw1
wpn_incom_blaster			ywing_weapon1_s05:weapon1	ywing_weapon2_s05:turretyaw1
wpn_incom_disruptor			ywing_weapon1_s01:weapon1	ywing_weapon2_s01:turretyaw1
wpn_incom_elite_quad_blaster			ywing_weapon1_s01:weapon1	ywing_weapon2_s01:turretyaw1
wpn_incom_heavy_blaster			ywing_weapon1_s01:weapon1	ywing_weapon2_s01:turretyaw1
wpn_incom_heavy_quad_blaster			ywing_weapon1_s01:weapon1	ywing_weapon2_s01:turretyaw1
wpn_incom_light_blaster			ywing_weapon1_s01:weapon1	ywing_weapon2_s01:turretyaw1
wpn_incom_quad_blaster			ywing_weapon1_s04:weapon1	ywing_weapon2_s04:turretyaw1
wpn_incom_shredder			ywing_weapon1_s01:weapon1	ywing_weapon2_s01:turretyaw1
wpn_incom_tt13			ywing_weapon1_s01:weapon1	ywing_weapon2_s01:turretyaw1
wpn_incom_tt8			ywing_weapon1_s01:weapon1	ywing_weapon2_s01:turretyaw1
wpn_kdy_pounder_mk1			ywing_weapon1_s01:weapon1	ywing_weapon2_s01:turretyaw1
wpn_koensayr_deluxe_ion_accelerator			ywing_weapon1_s01:weapon1	ywing_weapon2_s01:turretyaw1
wpn_koensayr_ion_accelerator			ywing_weapon1_s01:weapon1	ywing_weapon2_s01:turretyaw1
wpn_koensayr_ion_accelerator_2			ywing_weapon1_s01:weapon1	ywing_weapon2_s01:turretyaw1
wpn_koensayr_ion_accelerator_3			ywing_weapon1_s01:weapon1	ywing_weapon2_s01:turretyaw1
wpn_koensayr_ion_accelerator_advanced			ywing_weapon1_s01:weapon1	ywing_weapon2_s01:turretyaw1
wpn_koensayr_light_disruptor			ywing_weapon1_s01:weapon1	ywing_weapon2_s01:turretyaw1
wpn_koensayr_tuned_light_disruptor			ywing_weapon1_s01:weapon1	ywing_weapon2_s01:turretyaw1
wpn_kse_double_blaster			ywing_weapon1_s01:weapon1	ywing_weapon2_s01:turretyaw1
wpn_kse_light_disruptor			ywing_weapon1_s01:weapon1	ywing_weapon2_s01:turretyaw1
wpn_light_blaster			ywing_weapon1_s05:weapon1	ywing_weapon2_s05:turretyaw1
wpn_light_blaster_green			ywing_weapon1_s05:weapon1	ywing_weapon2_s05:turretyaw1
wpn_light_disruptor			ywing_weapon1_s01:weapon1	ywing_weapon2_s01:turretyaw1
wpn_light_ioncannon			ywing_weapon1_s06:weapon1	ywing_weapon2_s06:turretyaw1
wpn_mandal_advanced_annihilator			ywing_weapon1_s01:weapon1	ywing_weapon2_s01:turretyaw1
wpn_mandal_annihilator_mk2			ywing_weapon1_s01:weapon1	ywing_weapon2_s01:turretyaw1
wpn_mandal_annilhator_mk1			ywing_weapon1_s01:weapon1	ywing_weapon2_s01:turretyaw1
wpn_mandal_elite_annihilator			ywing_weapon1_s01:weapon1	ywing_weapon2_s01:turretyaw1
wpn_mandal_enhanced_mangler_mk1			ywing_weapon1_s01:weapon1	ywing_weapon2_s01:turretyaw1
wpn_mandal_heavy_annihilator			ywing_weapon1_s01:weapon1	ywing_weapon2_s01:turretyaw1
wpn_mandal_mangler_mk1			ywing_weapon1_s01:weapon1	ywing_weapon2_s01:turretyaw1
wpn_mandal_qv3_disruptor			ywing_weapon1_s01:weapon1	ywing_weapon2_s01:turretyaw1
wpn_mandal_qv5_disruptor			ywing_weapon1_s01:weapon1	ywing_weapon2_s01:turretyaw1
wpn_mandal_super_mangler			ywing_weapon1_s01:weapon1	ywing_weapon2_s01:turretyaw1
wpn_medium_blaster			ywing_weapon1_s05:weapon1	ywing_weapon2_s05:turretyaw1
wpn_medium_blaster_green			ywing_weapon1_s05:weapon1	ywing_weapon2_s05:turretyaw1
wpn_medium_disruptor			ywing_weapon1_s01:weapon1	ywing_weapon2_s01:turretyaw1
wpn_medium_ioncannon			ywing_weapon1_s06:weapon1	ywing_weapon2_s06:turretyaw1
wpn_mining_laser_mk1			ywing_weapon1_s05:weapon1	ywing_weapon2_s05:turretyaw1
wpn_mining_laser_mk2			ywing_weapon1_s05:weapon1	ywing_weapon2_s05:turretyaw1
wpn_mining_laser_mk3			ywing_weapon1_s05:weapon1	ywing_weapon2_s05:turretyaw1
wpn_mission_reward_imperial_cygnus_starblaster			ywing_weapon1_s01:weapon1	ywing_weapon2_s01:turretyaw1
wpn_mission_reward_imperial_sds_boltdriver			ywing_weapon1_s01:weapon1	ywing_weapon2_s01:turretyaw1
wpn_mission_reward_neutral_borstel_disruptor			ywing_weapon1_s01:weapon1	ywing_weapon2_s01:turretyaw1
wpn_mission_reward_neutral_hk_military_blaster			ywing_weapon1_s01:weapon1	ywing_weapon2_s01:turretyaw1
wpn_mission_reward_neutral_mandal_light_blaster			ywing_weapon1_s01:weapon1	ywing_weapon2_s01:turretyaw1
wpn_mission_reward_rebel_incom_tricannon			ywing_weapon1_s01:weapon1	ywing_weapon2_s01:turretyaw1
wpn_mission_reward_rebel_taim_ion_driver			ywing_weapon1_s01:weapon1	ywing_weapon2_s01:turretyaw1
wpn_moncal_light_blaster			ywing_weapon1_s01:weapon1	ywing_weapon2_s01:turretyaw1
wpn_rendili_advanced			ywing_weapon1_s01:weapon1	ywing_weapon2_s01:turretyaw1
wpn_rendili_fr13_disruptor			ywing_weapon1_s01:weapon1	ywing_weapon2_s01:turretyaw1
wpn_rendili_fr9_disruptor			ywing_weapon1_s01:weapon1	ywing_weapon2_s01:turretyaw1
wpn_rendili_sc3_disruptor			ywing_weapon1_s01:weapon1	ywing_weapon2_s01:turretyaw1
wpn_rendili_sc8_disruptor			ywing_weapon1_s01:weapon1	ywing_weapon2_s01:turretyaw1
wpn_rss_imperial_cannon			ywing_weapon1_s01:weapon1	ywing_weapon2_s01:turretyaw1
wpn_sds_elite			ywing_weapon1_s01:weapon1	ywing_weapon2_s01:turretyaw1
wpn_sds_heavy_imperial_spc_forces_cannon			ywing_weapon1_s01:weapon1	ywing_weapon2_s01:turretyaw1
wpn_sds_imperial_blaster_1			ywing_weapon1_s01:weapon1	ywing_weapon2_s01:turretyaw1
wpn_sds_imperial_blaster_2			ywing_weapon1_s01:weapon1	ywing_weapon2_s01:turretyaw1
wpn_sds_imperial_special_forces_cannon			ywing_weapon1_s01:weapon1	ywing_weapon2_s01:turretyaw1
wpn_sds_modified_elite			ywing_weapon1_s01:weapon1	ywing_weapon2_s01:turretyaw1
wpn_seinar_disruptor			ywing_weapon1_s01:weapon1	ywing_weapon2_s01:turretyaw1
wpn_seinar_ion_cannon			ywing_weapon1_s06:weapon1	ywing_weapon2_s06:turretyaw1
wpn_seinar_linked_cannon			ywing_weapon1_s06:weapon1	ywing_weapon2_s06:turretyaw1
wpn_seinar_ls1			ywing_weapon1_s05:weapon1	ywing_weapon2_s05:turretyaw1
wpn_seinar_ls72			ywing_weapon1_s05:weapon1	ywing_weapon2_s05:turretyaw1
wpn_sfs_elite			ywing_weapon1_s01:weapon1	ywing_weapon2_s01:turretyaw1
wpn_sfs_imperial_blaster_1			ywing_weapon1_s01:weapon1	ywing_weapon2_s01:turretyaw1
wpn_sfs_imperial_blaster_2			ywing_weapon1_s01:weapon1	ywing_weapon2_s01:turretyaw1
wpn_sfs_imperial_blaster_3			ywing_weapon1_s01:weapon1	ywing_weapon2_s01:turretyaw1
wpn_sfs_imperial_blaster_4			ywing_weapon1_s01:weapon1	ywing_weapon2_s01:turretyaw1
wpn_sfs_imperial_special_forces_blaster			ywing_weapon1_s01:weapon1	ywing_weapon2_s01:turretyaw1
wpn_sfs_improved_imperial_blaster_2			ywing_weapon1_s01:weapon1	ywing_weapon2_s01:turretyaw1
wpn_slayn_deluxe_light_ioncannon			ywing_weapon1_s01:weapon1	ywing_weapon2_s01:turretyaw1
wpn_slayn_ioncannon			ywing_weapon1_s06:weapon1	ywing_weapon2_s06:turretyaw1
wpn_slayn_light_ioncannon			ywing_weapon1_s01:weapon1	ywing_weapon2_s01:turretyaw1
wpn_subpro_advanced_cannon			ywing_weapon1_s01:weapon1	ywing_weapon2_s01:turretyaw1
wpn_subpro_improved_light_ioncannon			ywing_weapon1_s01:weapon1	ywing_weapon2_s01:turretyaw1
wpn_subpro_light_ioncannon			ywing_weapon1_s01:weapon1	ywing_weapon2_s01:turretyaw1
wpn_subpro_modified_tricannon			ywing_weapon1_s01:weapon1	ywing_weapon2_s01:turretyaw1
wpn_subpro_tricannon			ywing_weapon1_s01:weapon1	ywing_weapon2_s01:turretyaw1
wpn_subpro_tripleblaster			ywing_weapon1_s04:weapon1	ywing_weapon2_s04:turretyaw1
wpn_subpro_tripleblaster_mark2			ywing_weapon1_s04:weapon1	ywing_weapon2_s04:turretyaw1
wpn_subpro_tripleblaster_mark3			ywing_weapon1_s01:weapon1	ywing_weapon2_s01:turretyaw1
wpn_taim_elite			ywing_weapon1_s01:weapon1	ywing_weapon2_s01:turretyaw1
wpn_taim_heavy_laser			ywing_weapon1_s05:weapon1	ywing_weapon2_s05:turretyaw1
wpn_taim_ix4			ywing_weapon1_s05:weapon1	ywing_weapon2_s05:turretyaw1
wpn_taim_ix5			ywing_weapon1_s01:weapon1	ywing_weapon2_s01:turretyaw1
wpn_taim_kx5			ywing_weapon1_s05:weapon1	ywing_weapon2_s05:turretyaw1
wpn_taim_kx8			ywing_weapon1_s01:weapon1	ywing_weapon2_s01:turretyaw1
wpn_taim_kx9			ywing_weapon1_s05:weapon1	ywing_weapon2_s05:turretyaw1
wpn_tieadvanced_blaster			ywing_weapon1_s01:weapon1	ywing_weapon2_s01:turretyaw1
wpn_tractor_pulse_gun			ywing_weapon1_s05:weapon1	ywing_weapon2_s05:turretyaw1
wpn_trandoshan_fg1a			ywing_weapon1_s06:weapon1	ywing_weapon2_s06:turretyaw1
wpn_vengeance_ion_cannon			ywing_weapon1_s06:weapon1	ywing_weapon2_s06:turretyaw1
wpn_vulcan_cannon			ywing_weapon1_s06:weapon1	ywing_weapon2_s06:turretyaw1
wpn_z95_blaster			ywing_weapon1_s01:weapon1	ywing_weapon2_s01:turretyaw1
wpn_heavy_ionic_pulse_weapon			ywing_weapon1_s06:weapon1	ywing_weapon2_s06:turretyaw1
wpn_crafted_mining_laser_mk1			ywing_weapon1_s05:weapon1	ywing_weapon2_s05:turretyaw1
wpn_crafted_mining_laser_mk2			ywing_weapon1_s05:weapon1	ywing_weapon2_s05:turretyaw1
wpn_crafted_mining_laser_mk3			ywing_weapon1_s05:weapon1	ywing_weapon2_s05:turretyaw1
wpn_crafted_mining_laser_elite			ywing_weapon1_s05:weapon1	ywing_weapon2_s05:turretyaw1
wpn_ionic_pulse_weapon			ywing_weapon1_s06:weapon1	ywing_weapon2_s06:turretyaw1
wpn_reward_seinar_elite			ywing_weapon1_s06:weapon1	ywing_weapon2_s06:turretyaw1
wpn_kessel_imperial_rendili_prototype_x			ywing_weapon1_s06:weapon1	ywing_weapon2_s06:turretyaw1
wpn_kessel_imperial_sds_experimental_secret_ops			ywing_weapon1_s06:weapon1	ywing_weapon2_s06:turretyaw1
wpn_kessel_imperial_sfs_elite_ops			ywing_weapon1_s06:weapon1	ywing_weapon2_s06:turretyaw1
wpn_kessel_rebel_incom_dualcore_flashcannon			ywing_weapon1_s06:weapon1	ywing_weapon2_s06:turretyaw1
wpn_kessel_rebel_riiz_combine_slammer_cannon			ywing_weapon1_s06:weapon1	ywing_weapon2_s06:turretyaw1
wpn_kessel_rebel_unknown_rayslinger			ywing_weapon1_s06:weapon1	ywing_weapon2_s06:turretyaw1
wpn_reward_incom_elite			ywing_weapon1_s06:weapon1	ywing_weapon2_s06:turretyaw1
wpn_reward_seinar_elite			ywing_weapon1_s06:weapon1	ywing_weapon2_s06:turretyaw1
wpn_reward_slayn_elite			ywing_weapon1_s06:weapon1	ywing_weapon2_s06:turretyaw1
wpn_reward_subpro_elite			ywing_weapon1_s06:weapon1	ywing_weapon2_s06:turretyaw1
wpn_reward_taim_elite			ywing_weapon1_s06:weapon1	ywing_weapon2_s06:turretyaw1
wpn_nova_ioncannon			ywing_weapon1_s06:weapon1	ywing_weapon2_s06:turretyaw1
wpn_orion_disruptor			ywing_weapon1_s06:weapon1	ywing_weapon2_s06:turretyaw1
